module gitlab.com/adred/ds-users-service

go 1.17

require (
	github.com/99designs/gqlgen v0.16.0
	github.com/vektah/gqlparser/v2 v2.2.0
)

require (
	github.com/agnivade/levenshtein v1.1.1 // indirect
	github.com/cpuguy83/go-md2man/v2 v2.0.1 // indirect
	github.com/gorilla/websocket v1.4.2 // indirect
	github.com/hashicorp/golang-lru v0.5.4 // indirect
	github.com/logrusorgru/aurora/v3 v3.0.0 // indirect
	github.com/matryer/moq v0.2.3 // indirect
	github.com/mattn/go-colorable v0.1.4 // indirect
	github.com/mattn/go-isatty v0.0.12 // indirect
	github.com/mitchellh/mapstructure v1.4.1 // indirect
	github.com/russross/blackfriday/v2 v2.1.0 // indirect
	github.com/stretchr/testify v1.7.0 // indirect
	github.com/urfave/cli/v2 v2.3.0 // indirect
	golang.org/x/mod v0.4.2 // indirect
	golang.org/x/sys v0.0.0-20210615035016-665e8c7367d1 // indirect
	golang.org/x/tools v0.1.5 // indirect
	golang.org/x/xerrors v0.0.0-20200804184101-5ec99f83aff1 // indirect
	gopkg.in/yaml.v2 v2.2.8 // indirect
	gopkg.in/yaml.v3 v3.0.0-20210107192922-496545a6307b // indirect
)
